-- Merging decision tree log ---
manifest
ADDED from C:\Users\Lamanda\Documents\BP3\app\src\main\AndroidManifest.xml:2:1-24:12
INJECTED from C:\Users\Lamanda\Documents\BP3\app\src\main\AndroidManifest.xml:2:1-24:12
INJECTED from C:\Users\Lamanda\Documents\BP3\app\src\main\AndroidManifest.xml:2:1-24:12
INJECTED from C:\Users\Lamanda\Documents\BP3\app\src\main\AndroidManifest.xml:2:1-24:12
MERGED from [androidx.appcompat:appcompat:1.0.2] C:\Users\Lamanda\.gradle\caches\transforms-2\files-2.1\f6a183f8595ca34f3d5cc99d1f8bc322\appcompat-1.0.2\AndroidManifest.xml:17:1-22:12
MERGED from [androidx.constraintlayout:constraintlayout:1.1.3] C:\Users\Lamanda\.gradle\caches\transforms-2\files-2.1\8392647ca9531c13a8f0d6b7ad086e7e\constraintlayout-1.1.3\AndroidManifest.xml:2:1-11:12
MERGED from [androidx.recyclerview:recyclerview:1.1.0] C:\Users\Lamanda\.gradle\caches\transforms-2\files-2.1\2bf200c3ed6f794fd90e7a7e5e0ea6de\recyclerview-1.1.0\AndroidManifest.xml:17:1-24:12
MERGED from [androidx.cardview:cardview:1.0.0] C:\Users\Lamanda\.gradle\caches\transforms-2\files-2.1\ccc4f60e4549c263b614feec2a027fa2\cardview-1.0.0\AndroidManifest.xml:17:1-22:12
MERGED from [androidx.fragment:fragment:1.0.0] C:\Users\Lamanda\.gradle\caches\transforms-2\files-2.1\4f37a040d795d0eef135b10b20545e3f\fragment-1.0.0\AndroidManifest.xml:17:1-22:12
MERGED from [androidx.vectordrawable:vectordrawable-animated:1.0.0] C:\Users\Lamanda\.gradle\caches\transforms-2\files-2.1\d382ba9b8c9ea9d7b43a9cfaea0ecdf4\vectordrawable-animated-1.0.0\AndroidManifest.xml:17:1-22:12
MERGED from [androidx.legacy:legacy-support-core-ui:1.0.0] C:\Users\Lamanda\.gradle\caches\transforms-2\files-2.1\abc680e55824c418c024460e31034ed4\legacy-support-core-ui-1.0.0\AndroidManifest.xml:17:1-22:12
MERGED from [androidx.legacy:legacy-support-core-utils:1.0.0] C:\Users\Lamanda\.gradle\caches\transforms-2\files-2.1\ba2af06f417607d7ef1ca9f201a0d139\legacy-support-core-utils-1.0.0\AndroidManifest.xml:17:1-22:12
MERGED from [androidx.vectordrawable:vectordrawable:1.0.1] C:\Users\Lamanda\.gradle\caches\transforms-2\files-2.1\324a702de98e8e0560de88ae82ee3427\vectordrawable-1.0.1\AndroidManifest.xml:17:1-22:12
MERGED from [androidx.viewpager:viewpager:1.0.0] C:\Users\Lamanda\.gradle\caches\transforms-2\files-2.1\f3997ce16a5c00ae84a772d300d0e1e8\viewpager-1.0.0\AndroidManifest.xml:17:1-22:12
MERGED from [androidx.coordinatorlayout:coordinatorlayout:1.0.0] C:\Users\Lamanda\.gradle\caches\transforms-2\files-2.1\04087833f388d5ffa97a080d757646c2\coordinatorlayout-1.0.0\AndroidManifest.xml:17:1-22:12
MERGED from [androidx.drawerlayout:drawerlayout:1.0.0] C:\Users\Lamanda\.gradle\caches\transforms-2\files-2.1\34085af895daa23049fd0af188e6a001\drawerlayout-1.0.0\AndroidManifest.xml:17:1-22:12
MERGED from [androidx.slidingpanelayout:slidingpanelayout:1.0.0] C:\Users\Lamanda\.gradle\caches\transforms-2\files-2.1\eb11c4797d5d5b24d5dcbbebe26babf4\slidingpanelayout-1.0.0\AndroidManifest.xml:17:1-22:12
MERGED from [androidx.customview:customview:1.0.0] C:\Users\Lamanda\.gradle\caches\transforms-2\files-2.1\740a70a0c89c8c085b6e012b4bd7790e\customview-1.0.0\AndroidManifest.xml:17:1-22:12
MERGED from [androidx.loader:loader:1.0.0] C:\Users\Lamanda\.gradle\caches\transforms-2\files-2.1\331f61861c2d3a925f2252286afb1f53\loader-1.0.0\AndroidManifest.xml:17:1-22:12
MERGED from [androidx.swiperefreshlayout:swiperefreshlayout:1.0.0] C:\Users\Lamanda\.gradle\caches\transforms-2\files-2.1\31dc29ba3158cee4b1ca2bf2f6ff141b\swiperefreshlayout-1.0.0\AndroidManifest.xml:17:1-22:12
MERGED from [androidx.asynclayoutinflater:asynclayoutinflater:1.0.0] C:\Users\Lamanda\.gradle\caches\transforms-2\files-2.1\435f1166e6a428a0025d9cd273cb35a2\asynclayoutinflater-1.0.0\AndroidManifest.xml:17:1-22:12
MERGED from [androidx.core:core:1.1.0] C:\Users\Lamanda\.gradle\caches\transforms-2\files-2.1\c527b78844be871c44103f6f45a963fb\core-1.1.0\AndroidManifest.xml:17:1-26:12
MERGED from [androidx.versionedparcelable:versionedparcelable:1.1.0] C:\Users\Lamanda\.gradle\caches\transforms-2\files-2.1\c9c8616d74aa0ab3eb457d24b669c685\versionedparcelable-1.1.0\AndroidManifest.xml:17:1-27:12
MERGED from [androidx.cursoradapter:cursoradapter:1.0.0] C:\Users\Lamanda\.gradle\caches\transforms-2\files-2.1\aa91d8d2653c363bbd5da9d9892260d3\cursoradapter-1.0.0\AndroidManifest.xml:17:1-22:12
MERGED from [androidx.documentfile:documentfile:1.0.0] C:\Users\Lamanda\.gradle\caches\transforms-2\files-2.1\9d52be8c254a228a91eaf05f51d52923\documentfile-1.0.0\AndroidManifest.xml:17:1-22:12
MERGED from [androidx.localbroadcastmanager:localbroadcastmanager:1.0.0] C:\Users\Lamanda\.gradle\caches\transforms-2\files-2.1\9093771a98b01557e81860f4122d7892\localbroadcastmanager-1.0.0\AndroidManifest.xml:17:1-22:12
MERGED from [androidx.print:print:1.0.0] C:\Users\Lamanda\.gradle\caches\transforms-2\files-2.1\7ec682ca46f5c90ea9a9e0cba0c0310a\print-1.0.0\AndroidManifest.xml:17:1-22:12
MERGED from [androidx.lifecycle:lifecycle-viewmodel:2.0.0] C:\Users\Lamanda\.gradle\caches\transforms-2\files-2.1\85b59553d84ac8d04663d7d81848664c\lifecycle-viewmodel-2.0.0\AndroidManifest.xml:17:1-22:12
MERGED from [androidx.interpolator:interpolator:1.0.0] C:\Users\Lamanda\.gradle\caches\transforms-2\files-2.1\d4ef17d609918d2a5f5a86d1ea02678f\interpolator-1.0.0\AndroidManifest.xml:17:1-22:12
MERGED from [androidx.lifecycle:lifecycle-runtime:2.0.0] C:\Users\Lamanda\.gradle\caches\transforms-2\files-2.1\684c19030ab34291fff8f6b761838da8\lifecycle-runtime-2.0.0\AndroidManifest.xml:17:1-22:12
MERGED from [androidx.lifecycle:lifecycle-livedata:2.0.0] C:\Users\Lamanda\.gradle\caches\transforms-2\files-2.1\420f294924962582b4c42c622af43461\lifecycle-livedata-2.0.0\AndroidManifest.xml:17:1-22:12
MERGED from [androidx.lifecycle:lifecycle-livedata-core:2.0.0] C:\Users\Lamanda\.gradle\caches\transforms-2\files-2.1\66e997bde0b6ece28f7fd36f5f4a1584\lifecycle-livedata-core-2.0.0\AndroidManifest.xml:17:1-22:12
MERGED from [androidx.arch.core:core-runtime:2.0.0] C:\Users\Lamanda\.gradle\caches\transforms-2\files-2.1\8787729f29cf7add1bc29c81caccddfd\core-runtime-2.0.0\AndroidManifest.xml:17:1-22:12
INJECTED from C:\Users\Lamanda\Documents\BP3\app\src\main\AndroidManifest.xml:2:1-24:12
INJECTED from C:\Users\Lamanda\Documents\BP3\app\src\main\AndroidManifest.xml:2:1-24:12
INJECTED from C:\Users\Lamanda\Documents\BP3\app\src\main\AndroidManifest.xml:2:1-24:12
	package
		ADDED from C:\Users\Lamanda\Documents\BP3\app\src\main\AndroidManifest.xml:3:5-35
		INJECTED from C:\Users\Lamanda\Documents\BP3\app\src\main\AndroidManifest.xml
		INJECTED from C:\Users\Lamanda\Documents\BP3\app\src\main\AndroidManifest.xml
	android:versionName
		INJECTED from C:\Users\Lamanda\Documents\BP3\app\src\main\AndroidManifest.xml
		ADDED from C:\Users\Lamanda\Documents\BP3\app\src\main\AndroidManifest.xml:2:1-24:12
		INJECTED from C:\Users\Lamanda\Documents\BP3\app\src\main\AndroidManifest.xml
	android:versionCode
		INJECTED from C:\Users\Lamanda\Documents\BP3\app\src\main\AndroidManifest.xml
		ADDED from C:\Users\Lamanda\Documents\BP3\app\src\main\AndroidManifest.xml:2:1-24:12
		INJECTED from C:\Users\Lamanda\Documents\BP3\app\src\main\AndroidManifest.xml
	xmlns:android
		ADDED from C:\Users\Lamanda\Documents\BP3\app\src\main\AndroidManifest.xml:2:11-69
uses-permission#android.permission.INTERNET
ADDED from C:\Users\Lamanda\Documents\BP3\app\src\main\AndroidManifest.xml:5:5-67
	android:name
		ADDED from C:\Users\Lamanda\Documents\BP3\app\src\main\AndroidManifest.xml:5:22-64
application
ADDED from C:\Users\Lamanda\Documents\BP3\app\src\main\AndroidManifest.xml:7:5-22:19
MERGED from [androidx.constraintlayout:constraintlayout:1.1.3] C:\Users\Lamanda\.gradle\caches\transforms-2\files-2.1\8392647ca9531c13a8f0d6b7ad086e7e\constraintlayout-1.1.3\AndroidManifest.xml:9:5-20
MERGED from [androidx.constraintlayout:constraintlayout:1.1.3] C:\Users\Lamanda\.gradle\caches\transforms-2\files-2.1\8392647ca9531c13a8f0d6b7ad086e7e\constraintlayout-1.1.3\AndroidManifest.xml:9:5-20
MERGED from [androidx.core:core:1.1.0] C:\Users\Lamanda\.gradle\caches\transforms-2\files-2.1\c527b78844be871c44103f6f45a963fb\core-1.1.0\AndroidManifest.xml:24:5-89
MERGED from [androidx.core:core:1.1.0] C:\Users\Lamanda\.gradle\caches\transforms-2\files-2.1\c527b78844be871c44103f6f45a963fb\core-1.1.0\AndroidManifest.xml:24:5-89
MERGED from [androidx.versionedparcelable:versionedparcelable:1.1.0] C:\Users\Lamanda\.gradle\caches\transforms-2\files-2.1\c9c8616d74aa0ab3eb457d24b669c685\versionedparcelable-1.1.0\AndroidManifest.xml:24:5-25:19
MERGED from [androidx.versionedparcelable:versionedparcelable:1.1.0] C:\Users\Lamanda\.gradle\caches\transforms-2\files-2.1\c9c8616d74aa0ab3eb457d24b669c685\versionedparcelable-1.1.0\AndroidManifest.xml:24:5-25:19
	android:appComponentFactory
		ADDED from [androidx.core:core:1.1.0] C:\Users\Lamanda\.gradle\caches\transforms-2\files-2.1\c527b78844be871c44103f6f45a963fb\core-1.1.0\AndroidManifest.xml:24:18-86
	android:supportsRtl
		ADDED from C:\Users\Lamanda\Documents\BP3\app\src\main\AndroidManifest.xml:12:9-35
	android:label
		ADDED from C:\Users\Lamanda\Documents\BP3\app\src\main\AndroidManifest.xml:10:9-41
	android:roundIcon
		ADDED from C:\Users\Lamanda\Documents\BP3\app\src\main\AndroidManifest.xml:11:9-54
	android:icon
		ADDED from C:\Users\Lamanda\Documents\BP3\app\src\main\AndroidManifest.xml:9:9-43
	android:allowBackup
		ADDED from C:\Users\Lamanda\Documents\BP3\app\src\main\AndroidManifest.xml:8:9-35
	android:theme
		ADDED from C:\Users\Lamanda\Documents\BP3\app\src\main\AndroidManifest.xml:13:9-40
activity#com.devour.tugascrud.TampilData
ADDED from C:\Users\Lamanda\Documents\BP3\app\src\main\AndroidManifest.xml:14:9-57
	android:name
		ADDED from C:\Users\Lamanda\Documents\BP3\app\src\main\AndroidManifest.xml:14:19-45
activity#com.devour.tugascrud.MainActivity
ADDED from C:\Users\Lamanda\Documents\BP3\app\src\main\AndroidManifest.xml:15:9-21:20
	android:name
		ADDED from C:\Users\Lamanda\Documents\BP3\app\src\main\AndroidManifest.xml:15:19-47
intent-filter#action:name:android.intent.action.MAIN+category:name:android.intent.category.LAUNCHER
ADDED from C:\Users\Lamanda\Documents\BP3\app\src\main\AndroidManifest.xml:16:13-20:29
action#android.intent.action.MAIN
ADDED from C:\Users\Lamanda\Documents\BP3\app\src\main\AndroidManifest.xml:17:17-69
	android:name
		ADDED from C:\Users\Lamanda\Documents\BP3\app\src\main\AndroidManifest.xml:17:25-66
category#android.intent.category.LAUNCHER
ADDED from C:\Users\Lamanda\Documents\BP3\app\src\main\AndroidManifest.xml:19:17-77
	android:name
		ADDED from C:\Users\Lamanda\Documents\BP3\app\src\main\AndroidManifest.xml:19:27-74
uses-sdk
INJECTED from C:\Users\Lamanda\Documents\BP3\app\src\main\AndroidManifest.xml reason: use-sdk injection requested
INJECTED from C:\Users\Lamanda\Documents\BP3\app\src\main\AndroidManifest.xml
INJECTED from C:\Users\Lamanda\Documents\BP3\app\src\main\AndroidManifest.xml
MERGED from [androidx.appcompat:appcompat:1.0.2] C:\Users\Lamanda\.gradle\caches\transforms-2\files-2.1\f6a183f8595ca34f3d5cc99d1f8bc322\appcompat-1.0.2\AndroidManifest.xml:20:5-44
MERGED from [androidx.appcompat:appcompat:1.0.2] C:\Users\Lamanda\.gradle\caches\transforms-2\files-2.1\f6a183f8595ca34f3d5cc99d1f8bc322\appcompat-1.0.2\AndroidManifest.xml:20:5-44
MERGED from [androidx.constraintlayout:constraintlayout:1.1.3] C:\Users\Lamanda\.gradle\caches\transforms-2\files-2.1\8392647ca9531c13a8f0d6b7ad086e7e\constraintlayout-1.1.3\AndroidManifest.xml:5:5-7:41
MERGED from [androidx.constraintlayout:constraintlayout:1.1.3] C:\Users\Lamanda\.gradle\caches\transforms-2\files-2.1\8392647ca9531c13a8f0d6b7ad086e7e\constraintlayout-1.1.3\AndroidManifest.xml:5:5-7:41
MERGED from [androidx.recyclerview:recyclerview:1.1.0] C:\Users\Lamanda\.gradle\caches\transforms-2\files-2.1\2bf200c3ed6f794fd90e7a7e5e0ea6de\recyclerview-1.1.0\AndroidManifest.xml:20:5-22:41
MERGED from [androidx.recyclerview:recyclerview:1.1.0] C:\Users\Lamanda\.gradle\caches\transforms-2\files-2.1\2bf200c3ed6f794fd90e7a7e5e0ea6de\recyclerview-1.1.0\AndroidManifest.xml:20:5-22:41
MERGED from [androidx.cardview:cardview:1.0.0] C:\Users\Lamanda\.gradle\caches\transforms-2\files-2.1\ccc4f60e4549c263b614feec2a027fa2\cardview-1.0.0\AndroidManifest.xml:20:5-44
MERGED from [androidx.cardview:cardview:1.0.0] C:\Users\Lamanda\.gradle\caches\transforms-2\files-2.1\ccc4f60e4549c263b614feec2a027fa2\cardview-1.0.0\AndroidManifest.xml:20:5-44
MERGED from [androidx.fragment:fragment:1.0.0] C:\Users\Lamanda\.gradle\caches\transforms-2\files-2.1\4f37a040d795d0eef135b10b20545e3f\fragment-1.0.0\AndroidManifest.xml:20:5-44
MERGED from [androidx.fragment:fragment:1.0.0] C:\Users\Lamanda\.gradle\caches\transforms-2\files-2.1\4f37a040d795d0eef135b10b20545e3f\fragment-1.0.0\AndroidManifest.xml:20:5-44
MERGED from [androidx.vectordrawable:vectordrawable-animated:1.0.0] C:\Users\Lamanda\.gradle\caches\transforms-2\files-2.1\d382ba9b8c9ea9d7b43a9cfaea0ecdf4\vectordrawable-animated-1.0.0\AndroidManifest.xml:20:5-44
MERGED from [androidx.vectordrawable:vectordrawable-animated:1.0.0] C:\Users\Lamanda\.gradle\caches\transforms-2\files-2.1\d382ba9b8c9ea9d7b43a9cfaea0ecdf4\vectordrawable-animated-1.0.0\AndroidManifest.xml:20:5-44
MERGED from [androidx.legacy:legacy-support-core-ui:1.0.0] C:\Users\Lamanda\.gradle\caches\transforms-2\files-2.1\abc680e55824c418c024460e31034ed4\legacy-support-core-ui-1.0.0\AndroidManifest.xml:20:5-44
MERGED from [androidx.legacy:legacy-support-core-ui:1.0.0] C:\Users\Lamanda\.gradle\caches\transforms-2\files-2.1\abc680e55824c418c024460e31034ed4\legacy-support-core-ui-1.0.0\AndroidManifest.xml:20:5-44
MERGED from [androidx.legacy:legacy-support-core-utils:1.0.0] C:\Users\Lamanda\.gradle\caches\transforms-2\files-2.1\ba2af06f417607d7ef1ca9f201a0d139\legacy-support-core-utils-1.0.0\AndroidManifest.xml:20:5-44
MERGED from [androidx.legacy:legacy-support-core-utils:1.0.0] C:\Users\Lamanda\.gradle\caches\transforms-2\files-2.1\ba2af06f417607d7ef1ca9f201a0d139\legacy-support-core-utils-1.0.0\AndroidManifest.xml:20:5-44
MERGED from [androidx.vectordrawable:vectordrawable:1.0.1] C:\Users\Lamanda\.gradle\caches\transforms-2\files-2.1\324a702de98e8e0560de88ae82ee3427\vectordrawable-1.0.1\AndroidManifest.xml:20:5-44
MERGED from [androidx.vectordrawable:vectordrawable:1.0.1] C:\Users\Lamanda\.gradle\caches\transforms-2\files-2.1\324a702de98e8e0560de88ae82ee3427\vectordrawable-1.0.1\AndroidManifest.xml:20:5-44
MERGED from [androidx.viewpager:viewpager:1.0.0] C:\Users\Lamanda\.gradle\caches\transforms-2\files-2.1\f3997ce16a5c00ae84a772d300d0e1e8\viewpager-1.0.0\AndroidManifest.xml:20:5-44
MERGED from [androidx.viewpager:viewpager:1.0.0] C:\Users\Lamanda\.gradle\caches\transforms-2\files-2.1\f3997ce16a5c00ae84a772d300d0e1e8\viewpager-1.0.0\AndroidManifest.xml:20:5-44
MERGED from [androidx.coordinatorlayout:coordinatorlayout:1.0.0] C:\Users\Lamanda\.gradle\caches\transforms-2\files-2.1\04087833f388d5ffa97a080d757646c2\coordinatorlayout-1.0.0\AndroidManifest.xml:20:5-44
MERGED from [androidx.coordinatorlayout:coordinatorlayout:1.0.0] C:\Users\Lamanda\.gradle\caches\transforms-2\files-2.1\04087833f388d5ffa97a080d757646c2\coordinatorlayout-1.0.0\AndroidManifest.xml:20:5-44
MERGED from [androidx.drawerlayout:drawerlayout:1.0.0] C:\Users\Lamanda\.gradle\caches\transforms-2\files-2.1\34085af895daa23049fd0af188e6a001\drawerlayout-1.0.0\AndroidManifest.xml:20:5-44
MERGED from [androidx.drawerlayout:drawerlayout:1.0.0] C:\Users\Lamanda\.gradle\caches\transforms-2\files-2.1\34085af895daa23049fd0af188e6a001\drawerlayout-1.0.0\AndroidManifest.xml:20:5-44
MERGED from [androidx.slidingpanelayout:slidingpanelayout:1.0.0] C:\Users\Lamanda\.gradle\caches\transforms-2\files-2.1\eb11c4797d5d5b24d5dcbbebe26babf4\slidingpanelayout-1.0.0\AndroidManifest.xml:20:5-44
MERGED from [androidx.slidingpanelayout:slidingpanelayout:1.0.0] C:\Users\Lamanda\.gradle\caches\transforms-2\files-2.1\eb11c4797d5d5b24d5dcbbebe26babf4\slidingpanelayout-1.0.0\AndroidManifest.xml:20:5-44
MERGED from [androidx.customview:customview:1.0.0] C:\Users\Lamanda\.gradle\caches\transforms-2\files-2.1\740a70a0c89c8c085b6e012b4bd7790e\customview-1.0.0\AndroidManifest.xml:20:5-44
MERGED from [androidx.customview:customview:1.0.0] C:\Users\Lamanda\.gradle\caches\transforms-2\files-2.1\740a70a0c89c8c085b6e012b4bd7790e\customview-1.0.0\AndroidManifest.xml:20:5-44
MERGED from [androidx.loader:loader:1.0.0] C:\Users\Lamanda\.gradle\caches\transforms-2\files-2.1\331f61861c2d3a925f2252286afb1f53\loader-1.0.0\AndroidManifest.xml:20:5-44
MERGED from [androidx.loader:loader:1.0.0] C:\Users\Lamanda\.gradle\caches\transforms-2\files-2.1\331f61861c2d3a925f2252286afb1f53\loader-1.0.0\AndroidManifest.xml:20:5-44
MERGED from [androidx.swiperefreshlayout:swiperefreshlayout:1.0.0] C:\Users\Lamanda\.gradle\caches\transforms-2\files-2.1\31dc29ba3158cee4b1ca2bf2f6ff141b\swiperefreshlayout-1.0.0\AndroidManifest.xml:20:5-44
MERGED from [androidx.swiperefreshlayout:swiperefreshlayout:1.0.0] C:\Users\Lamanda\.gradle\caches\transforms-2\files-2.1\31dc29ba3158cee4b1ca2bf2f6ff141b\swiperefreshlayout-1.0.0\AndroidManifest.xml:20:5-44
MERGED from [androidx.asynclayoutinflater:asynclayoutinflater:1.0.0] C:\Users\Lamanda\.gradle\caches\transforms-2\files-2.1\435f1166e6a428a0025d9cd273cb35a2\asynclayoutinflater-1.0.0\AndroidManifest.xml:20:5-44
MERGED from [androidx.asynclayoutinflater:asynclayoutinflater:1.0.0] C:\Users\Lamanda\.gradle\caches\transforms-2\files-2.1\435f1166e6a428a0025d9cd273cb35a2\asynclayoutinflater-1.0.0\AndroidManifest.xml:20:5-44
MERGED from [androidx.core:core:1.1.0] C:\Users\Lamanda\.gradle\caches\transforms-2\files-2.1\c527b78844be871c44103f6f45a963fb\core-1.1.0\AndroidManifest.xml:20:5-22:41
MERGED from [androidx.core:core:1.1.0] C:\Users\Lamanda\.gradle\caches\transforms-2\files-2.1\c527b78844be871c44103f6f45a963fb\core-1.1.0\AndroidManifest.xml:20:5-22:41
MERGED from [androidx.versionedparcelable:versionedparcelable:1.1.0] C:\Users\Lamanda\.gradle\caches\transforms-2\files-2.1\c9c8616d74aa0ab3eb457d24b669c685\versionedparcelable-1.1.0\AndroidManifest.xml:20:5-22:41
MERGED from [androidx.versionedparcelable:versionedparcelable:1.1.0] C:\Users\Lamanda\.gradle\caches\transforms-2\files-2.1\c9c8616d74aa0ab3eb457d24b669c685\versionedparcelable-1.1.0\AndroidManifest.xml:20:5-22:41
MERGED from [androidx.cursoradapter:cursoradapter:1.0.0] C:\Users\Lamanda\.gradle\caches\transforms-2\files-2.1\aa91d8d2653c363bbd5da9d9892260d3\cursoradapter-1.0.0\AndroidManifest.xml:20:5-44
MERGED from [androidx.cursoradapter:cursoradapter:1.0.0] C:\Users\Lamanda\.gradle\caches\transforms-2\files-2.1\aa91d8d2653c363bbd5da9d9892260d3\cursoradapter-1.0.0\AndroidManifest.xml:20:5-44
MERGED from [androidx.documentfile:documentfile:1.0.0] C:\Users\Lamanda\.gradle\caches\transforms-2\files-2.1\9d52be8c254a228a91eaf05f51d52923\documentfile-1.0.0\AndroidManifest.xml:20:5-44
MERGED from [androidx.documentfile:documentfile:1.0.0] C:\Users\Lamanda\.gradle\caches\transforms-2\files-2.1\9d52be8c254a228a91eaf05f51d52923\documentfile-1.0.0\AndroidManifest.xml:20:5-44
MERGED from [androidx.localbroadcastmanager:localbroadcastmanager:1.0.0] C:\Users\Lamanda\.gradle\caches\transforms-2\files-2.1\9093771a98b01557e81860f4122d7892\localbroadcastmanager-1.0.0\AndroidManifest.xml:20:5-44
MERGED from [androidx.localbroadcastmanager:localbroadcastmanager:1.0.0] C:\Users\Lamanda\.gradle\caches\transforms-2\files-2.1\9093771a98b01557e81860f4122d7892\localbroadcastmanager-1.0.0\AndroidManifest.xml:20:5-44
MERGED from [androidx.print:print:1.0.0] C:\Users\Lamanda\.gradle\caches\transforms-2\files-2.1\7ec682ca46f5c90ea9a9e0cba0c0310a\print-1.0.0\AndroidManifest.xml:20:5-44
MERGED from [androidx.print:print:1.0.0] C:\Users\Lamanda\.gradle\caches\transforms-2\files-2.1\7ec682ca46f5c90ea9a9e0cba0c0310a\print-1.0.0\AndroidManifest.xml:20:5-44
MERGED from [androidx.lifecycle:lifecycle-viewmodel:2.0.0] C:\Users\Lamanda\.gradle\caches\transforms-2\files-2.1\85b59553d84ac8d04663d7d81848664c\lifecycle-viewmodel-2.0.0\AndroidManifest.xml:20:5-44
MERGED from [androidx.lifecycle:lifecycle-viewmodel:2.0.0] C:\Users\Lamanda\.gradle\caches\transforms-2\files-2.1\85b59553d84ac8d04663d7d81848664c\lifecycle-viewmodel-2.0.0\AndroidManifest.xml:20:5-44
MERGED from [androidx.interpolator:interpolator:1.0.0] C:\Users\Lamanda\.gradle\caches\transforms-2\files-2.1\d4ef17d609918d2a5f5a86d1ea02678f\interpolator-1.0.0\AndroidManifest.xml:20:5-44
MERGED from [androidx.interpolator:interpolator:1.0.0] C:\Users\Lamanda\.gradle\caches\transforms-2\files-2.1\d4ef17d609918d2a5f5a86d1ea02678f\interpolator-1.0.0\AndroidManifest.xml:20:5-44
MERGED from [androidx.lifecycle:lifecycle-runtime:2.0.0] C:\Users\Lamanda\.gradle\caches\transforms-2\files-2.1\684c19030ab34291fff8f6b761838da8\lifecycle-runtime-2.0.0\AndroidManifest.xml:20:5-44
MERGED from [androidx.lifecycle:lifecycle-runtime:2.0.0] C:\Users\Lamanda\.gradle\caches\transforms-2\files-2.1\684c19030ab34291fff8f6b761838da8\lifecycle-runtime-2.0.0\AndroidManifest.xml:20:5-44
MERGED from [androidx.lifecycle:lifecycle-livedata:2.0.0] C:\Users\Lamanda\.gradle\caches\transforms-2\files-2.1\420f294924962582b4c42c622af43461\lifecycle-livedata-2.0.0\AndroidManifest.xml:20:5-44
MERGED from [androidx.lifecycle:lifecycle-livedata:2.0.0] C:\Users\Lamanda\.gradle\caches\transforms-2\files-2.1\420f294924962582b4c42c622af43461\lifecycle-livedata-2.0.0\AndroidManifest.xml:20:5-44
MERGED from [androidx.lifecycle:lifecycle-livedata-core:2.0.0] C:\Users\Lamanda\.gradle\caches\transforms-2\files-2.1\66e997bde0b6ece28f7fd36f5f4a1584\lifecycle-livedata-core-2.0.0\AndroidManifest.xml:20:5-44
MERGED from [androidx.lifecycle:lifecycle-livedata-core:2.0.0] C:\Users\Lamanda\.gradle\caches\transforms-2\files-2.1\66e997bde0b6ece28f7fd36f5f4a1584\lifecycle-livedata-core-2.0.0\AndroidManifest.xml:20:5-44
MERGED from [androidx.arch.core:core-runtime:2.0.0] C:\Users\Lamanda\.gradle\caches\transforms-2\files-2.1\8787729f29cf7add1bc29c81caccddfd\core-runtime-2.0.0\AndroidManifest.xml:20:5-44
MERGED from [androidx.arch.core:core-runtime:2.0.0] C:\Users\Lamanda\.gradle\caches\transforms-2\files-2.1\8787729f29cf7add1bc29c81caccddfd\core-runtime-2.0.0\AndroidManifest.xml:20:5-44
INJECTED from C:\Users\Lamanda\Documents\BP3\app\src\main\AndroidManifest.xml
INJECTED from C:\Users\Lamanda\Documents\BP3\app\src\main\AndroidManifest.xml
	android:targetSdkVersion
		INJECTED from C:\Users\Lamanda\Documents\BP3\app\src\main\AndroidManifest.xml
		ADDED from C:\Users\Lamanda\Documents\BP3\app\src\main\AndroidManifest.xml
		INJECTED from C:\Users\Lamanda\Documents\BP3\app\src\main\AndroidManifest.xml
	android:minSdkVersion
		INJECTED from C:\Users\Lamanda\Documents\BP3\app\src\main\AndroidManifest.xml
		ADDED from C:\Users\Lamanda\Documents\BP3\app\src\main\AndroidManifest.xml
		INJECTED from C:\Users\Lamanda\Documents\BP3\app\src\main\AndroidManifest.xml
